^C:\USERS\ICUSTOMIZE\DOCUMENTS\VISUAL STUDIO 2010\PROJECTS\TONGUETRACKING\TONGUETRACKING\RELEASE\.NETFRAMEWORK,VERSION=V4.0.ASSEMBLYATTRIBUTES.OBJ|C:\USERS\ICUSTOMIZE\DOCUMENTS\VISUAL STUDIO 2010\PROJECTS\TONGUETRACKING\TONGUETRACKING\RELEASE\APP.RES|C:\USERS\ICUSTOMIZE\DOCUMENTS\VISUAL STUDIO 2010\PROJECTS\TONGUETRACKING\TONGUETRACKING\RELEASE\ASSEMBLYINFO.OBJ|C:\USERS\ICUSTOMIZE\DOCUMENTS\VISUAL STUDIO 2010\PROJECTS\TONGUETRACKING\TONGUETRACKING\RELEASE\DETECTION.OBJ|C:\USERS\ICUSTOMIZE\DOCUMENTS\VISUAL STUDIO 2010\PROJECTS\TONGUETRACKING\TONGUETRACKING\RELEASE\STDAFX.OBJ|C:\USERS\ICUSTOMIZE\DOCUMENTS\VISUAL STUDIO 2010\PROJECTS\TONGUETRACKING\TONGUETRACKING\RELEASE\TONGUETRACKING.OBJ|C:\USERS\ICUSTOMIZE\DOCUMENTS\VISUAL STUDIO 2010\PROJECTS\TONGUETRACKING\TONGUETRACKING\RELEASE\UI.OBJ
C:\PROGRAM FILES\MICROSOFT VISUAL STUDIO 10.0\VC\BIN\LINK.EXE
C:\WINDOWS\SYSTEM32\C_1252.NLS
C:\PROGRAM FILES\MICROSOFT SDKS\WINDOWS\V7.0A\LIB\KERNEL32.LIB
C:\PROGRAM FILES\MICROSOFT SDKS\WINDOWS\V7.0A\LIB\USER32.LIB
C:\PROGRAM FILES\MICROSOFT SDKS\WINDOWS\V7.0A\LIB\GDI32.LIB
C:\PROGRAM FILES\MICROSOFT SDKS\WINDOWS\V7.0A\LIB\WINSPOOL.LIB
C:\PROGRAM FILES\MICROSOFT SDKS\WINDOWS\V7.0A\LIB\COMDLG32.LIB
C:\PROGRAM FILES\MICROSOFT SDKS\WINDOWS\V7.0A\LIB\ADVAPI32.LIB
C:\PROGRAM FILES\MICROSOFT SDKS\WINDOWS\V7.0A\LIB\SHELL32.LIB
C:\PROGRAM FILES\MICROSOFT SDKS\WINDOWS\V7.0A\LIB\OLE32.LIB
C:\PROGRAM FILES\MICROSOFT SDKS\WINDOWS\V7.0A\LIB\OLEAUT32.LIB
C:\PROGRAM FILES\MICROSOFT SDKS\WINDOWS\V7.0A\LIB\UUID.LIB
C:\PROGRAM FILES\MICROSOFT SDKS\WINDOWS\V7.0A\LIB\ODBC32.LIB
C:\PROGRAM FILES\MICROSOFT SDKS\WINDOWS\V7.0A\LIB\ODBCCP32.LIB
C:\OPENCV2.3.1\OPENCV\BUILD\X86\VC10\LIB\OPENCV_CALIB3D231.LIB
C:\OPENCV2.3.1\OPENCV\BUILD\X86\VC10\LIB\OPENCV_CALIB3D231D.LIB
C:\OPENCV2.3.1\OPENCV\BUILD\X86\VC10\LIB\OPENCV_CONTRIB231.LIB
C:\OPENCV2.3.1\OPENCV\BUILD\X86\VC10\LIB\OPENCV_CONTRIB231D.LIB
C:\OPENCV2.3.1\OPENCV\BUILD\X86\VC10\LIB\OPENCV_CORE231.LIB
C:\OPENCV2.3.1\OPENCV\BUILD\X86\VC10\LIB\OPENCV_CORE231D.LIB
C:\OPENCV2.3.1\OPENCV\BUILD\X86\VC10\LIB\OPENCV_FEATURES2D231.LIB
C:\OPENCV2.3.1\OPENCV\BUILD\X86\VC10\LIB\OPENCV_FEATURES2D231D.LIB
C:\OPENCV2.3.1\OPENCV\BUILD\X86\VC10\LIB\OPENCV_FLANN231.LIB
C:\OPENCV2.3.1\OPENCV\BUILD\X86\VC10\LIB\OPENCV_FLANN231D.LIB
C:\OPENCV2.3.1\OPENCV\BUILD\X86\VC10\LIB\OPENCV_GPU231.LIB
C:\OPENCV2.3.1\OPENCV\BUILD\X86\VC10\LIB\OPENCV_GPU231D.LIB
C:\OPENCV2.3.1\OPENCV\BUILD\X86\VC10\LIB\OPENCV_HAARTRAINING_ENGINE.LIB
C:\OPENCV2.3.1\OPENCV\BUILD\X86\VC10\LIB\OPENCV_HAARTRAINING_ENGINED.LIB
C:\OPENCV2.3.1\OPENCV\BUILD\X86\VC10\LIB\OPENCV_HIGHGUI231.LIB
C:\OPENCV2.3.1\OPENCV\BUILD\X86\VC10\LIB\OPENCV_HIGHGUI231D.LIB
C:\OPENCV2.3.1\OPENCV\BUILD\X86\VC10\LIB\OPENCV_IMGPROC231.LIB
C:\OPENCV2.3.1\OPENCV\BUILD\X86\VC10\LIB\OPENCV_IMGPROC231D.LIB
C:\OPENCV2.3.1\OPENCV\BUILD\X86\VC10\LIB\OPENCV_LEGACY231.LIB
C:\OPENCV2.3.1\OPENCV\BUILD\X86\VC10\LIB\OPENCV_LEGACY231D.LIB
C:\OPENCV2.3.1\OPENCV\BUILD\X86\VC10\LIB\OPENCV_ML231.LIB
C:\OPENCV2.3.1\OPENCV\BUILD\X86\VC10\LIB\OPENCV_ML231D.LIB
C:\OPENCV2.3.1\OPENCV\BUILD\X86\VC10\LIB\OPENCV_OBJDETECT231.LIB
C:\OPENCV2.3.1\OPENCV\BUILD\X86\VC10\LIB\OPENCV_OBJDETECT231D.LIB
C:\OPENCV2.3.1\OPENCV\BUILD\X86\VC10\LIB\OPENCV_TS231.LIB
C:\OPENCV2.3.1\OPENCV\BUILD\X86\VC10\LIB\OPENCV_TS231D.LIB
C:\OPENCV2.3.1\OPENCV\BUILD\X86\VC10\LIB\OPENCV_VIDEO231.LIB
C:\OPENCV2.3.1\OPENCV\BUILD\X86\VC10\LIB\OPENCV_VIDEO231D.LIB
C:\TBB41\LIB\IA32\VC10\TBB.LIB
C:\TBB41\LIB\IA32\VC10\TBBMALLOC.LIB
C:\TBB41\LIB\IA32\VC10\TBBMALLOC_DEBUG.LIB
C:\TBB41\LIB\IA32\VC10\TBBMALLOC_PROXY.LIB
C:\TBB41\LIB\IA32\VC10\TBBMALLOC_PROXY_DEBUG.LIB
C:\TBB41\LIB\IA32\VC10\TBBPROXY.LIB
C:\TBB41\LIB\IA32\VC10\TBBPROXY_DEBUG.LIB
C:\TBB41\LIB\IA32\VC10\TBB_DEBUG.LIB
C:\TBB41\LIB\IA32\VC10\TBB_PREVIEW.LIB
C:\TBB41\LIB\IA32\VC10\TBB_PREVIEW_DEBUG.LIB
C:\USERS\ICUSTOMIZE\DOCUMENTS\VISUAL STUDIO 2010\PROJECTS\TONGUETRACKING\TONGUETRACKING\RELEASE\APP.RES
C:\USERS\ICUSTOMIZE\DOCUMENTS\VISUAL STUDIO 2010\PROJECTS\TONGUETRACKING\TONGUETRACKING\RELEASE\ASSEMBLYINFO.OBJ
C:\USERS\ICUSTOMIZE\DOCUMENTS\VISUAL STUDIO 2010\PROJECTS\TONGUETRACKING\TONGUETRACKING\RELEASE\DETECTION.OBJ
C:\USERS\ICUSTOMIZE\DOCUMENTS\VISUAL STUDIO 2010\PROJECTS\TONGUETRACKING\TONGUETRACKING\RELEASE\STDAFX.OBJ
C:\USERS\ICUSTOMIZE\DOCUMENTS\VISUAL STUDIO 2010\PROJECTS\TONGUETRACKING\TONGUETRACKING\RELEASE\TONGUETRACKING.OBJ
C:\USERS\ICUSTOMIZE\DOCUMENTS\VISUAL STUDIO 2010\PROJECTS\TONGUETRACKING\TONGUETRACKING\RELEASE\UI.OBJ
C:\USERS\ICUSTOMIZE\DOCUMENTS\VISUAL STUDIO 2010\PROJECTS\TONGUETRACKING\TONGUETRACKING\RELEASE\.NETFRAMEWORK,VERSION=V4.0.ASSEMBLYATTRIBUTES.OBJ
C:\WINDOWS\GLOBALIZATION\SORTING\SORTDEFAULT.NLS
C:\WINDOWS\MICROSOFT.NET\FRAMEWORK\V2.0.50727\MSCORWKS.DLL
C:\WINDOWS\MICROSOFT.NET\FRAMEWORK\V4.0.30319\CLR.DLL
C:\PROGRAM FILES\MICROSOFT VISUAL STUDIO 10.0\VC\BIN\LINK.EXE.CONFIG
C:\PROGRAM FILES\MICROSOFT VISUAL STUDIO 10.0\VC\LIB\MSVCPRT.LIB
C:\PROGRAM FILES\MICROSOFT VISUAL STUDIO 10.0\VC\LIB\MSVCRT.LIB
C:\PROGRAM FILES\MICROSOFT VISUAL STUDIO 10.0\VC\LIB\OLDNAMES.LIB
C:\PROGRAM FILES\MICROSOFT VISUAL STUDIO 10.0\VC\LIB\MSVCMRT.LIB
C:\PROGRAM FILES\MICROSOFT SDKS\WINDOWS\V7.0A\LIB\MSCOREE.LIB
C:\PROGRAM FILES\MICROSOFT VISUAL STUDIO 10.0\VC\BIN\CVTRES.EXE
C:\WINDOWS\SYSTEM32\TZRES.DLL
C:\PROGRAM FILES\MICROSOFT VISUAL STUDIO 10.0\VC\BIN\1033\LINKUI.DLL
C:\USERS\ICUSTOMIZE\DOCUMENTS\VISUAL STUDIO 2010\PROJECTS\TONGUETRACKING\TONGUETRACKING\RELEASE\TONGUETRACKING.UI.RESOURCES
C:\WINDOWS\SYSTEM32\RSAENH.DLL
^C:\USERS\ICUSTOMIZE\DOCUMENTS\VISUAL STUDIO 2010\PROJECTS\TONGUETRACKING - COPY\TONGUETRACKING\RELEASE\.NETFRAMEWORK,VERSION=V4.0.ASSEMBLYATTRIBUTES.OBJ|C:\USERS\ICUSTOMIZE\DOCUMENTS\VISUAL STUDIO 2010\PROJECTS\TONGUETRACKING - COPY\TONGUETRACKING\RELEASE\APP.RES|C:\USERS\ICUSTOMIZE\DOCUMENTS\VISUAL STUDIO 2010\PROJECTS\TONGUETRACKING - COPY\TONGUETRACKING\RELEASE\ASSEMBLYINFO.OBJ|C:\USERS\ICUSTOMIZE\DOCUMENTS\VISUAL STUDIO 2010\PROJECTS\TONGUETRACKING - COPY\TONGUETRACKING\RELEASE\DETECTION.OBJ|C:\USERS\ICUSTOMIZE\DOCUMENTS\VISUAL STUDIO 2010\PROJECTS\TONGUETRACKING - COPY\TONGUETRACKING\RELEASE\STDAFX.OBJ|C:\USERS\ICUSTOMIZE\DOCUMENTS\VISUAL STUDIO 2010\PROJECTS\TONGUETRACKING - COPY\TONGUETRACKING\RELEASE\TONGUETRACKING.OBJ|C:\USERS\ICUSTOMIZE\DOCUMENTS\VISUAL STUDIO 2010\PROJECTS\TONGUETRACKING - COPY\TONGUETRACKING\RELEASE\UI.OBJ
C:\PROGRAM FILES\MICROSOFT VISUAL STUDIO 10.0\VC\BIN\LINK.EXE
C:\WINDOWS\SYSTEM32\C_1252.NLS
C:\PROGRAM FILES\MICROSOFT SDKS\WINDOWS\V7.0A\LIB\KERNEL32.LIB
C:\PROGRAM FILES\MICROSOFT SDKS\WINDOWS\V7.0A\LIB\USER32.LIB
C:\PROGRAM FILES\MICROSOFT SDKS\WINDOWS\V7.0A\LIB\GDI32.LIB
C:\PROGRAM FILES\MICROSOFT SDKS\WINDOWS\V7.0A\LIB\WINSPOOL.LIB
C:\PROGRAM FILES\MICROSOFT SDKS\WINDOWS\V7.0A\LIB\COMDLG32.LIB
C:\PROGRAM FILES\MICROSOFT SDKS\WINDOWS\V7.0A\LIB\ADVAPI32.LIB
C:\PROGRAM FILES\MICROSOFT SDKS\WINDOWS\V7.0A\LIB\SHELL32.LIB
C:\PROGRAM FILES\MICROSOFT SDKS\WINDOWS\V7.0A\LIB\OLE32.LIB
C:\PROGRAM FILES\MICROSOFT SDKS\WINDOWS\V7.0A\LIB\OLEAUT32.LIB
C:\PROGRAM FILES\MICROSOFT SDKS\WINDOWS\V7.0A\LIB\UUID.LIB
C:\PROGRAM FILES\MICROSOFT SDKS\WINDOWS\V7.0A\LIB\ODBC32.LIB
C:\PROGRAM FILES\MICROSOFT SDKS\WINDOWS\V7.0A\LIB\ODBCCP32.LIB
C:\OPENCV2.3.1\OPENCV\BUILD\X86\VC10\LIB\OPENCV_CALIB3D231.LIB
C:\OPENCV2.3.1\OPENCV\BUILD\X86\VC10\LIB\OPENCV_CALIB3D231D.LIB
C:\OPENCV2.3.1\OPENCV\BUILD\X86\VC10\LIB\OPENCV_CONTRIB231.LIB
C:\OPENCV2.3.1\OPENCV\BUILD\X86\VC10\LIB\OPENCV_CONTRIB231D.LIB
C:\OPENCV2.3.1\OPENCV\BUILD\X86\VC10\LIB\OPENCV_CORE231.LIB
C:\OPENCV2.3.1\OPENCV\BUILD\X86\VC10\LIB\OPENCV_CORE231D.LIB
C:\OPENCV2.3.1\OPENCV\BUILD\X86\VC10\LIB\OPENCV_FEATURES2D231.LIB
C:\OPENCV2.3.1\OPENCV\BUILD\X86\VC10\LIB\OPENCV_FEATURES2D231D.LIB
C:\OPENCV2.3.1\OPENCV\BUILD\X86\VC10\LIB\OPENCV_FLANN231.LIB
C:\OPENCV2.3.1\OPENCV\BUILD\X86\VC10\LIB\OPENCV_FLANN231D.LIB
C:\OPENCV2.3.1\OPENCV\BUILD\X86\VC10\LIB\OPENCV_GPU231.LIB
C:\OPENCV2.3.1\OPENCV\BUILD\X86\VC10\LIB\OPENCV_GPU231D.LIB
C:\OPENCV2.3.1\OPENCV\BUILD\X86\VC10\LIB\OPENCV_HAARTRAINING_ENGINE.LIB
C:\OPENCV2.3.1\OPENCV\BUILD\X86\VC10\LIB\OPENCV_HAARTRAINING_ENGINED.LIB
C:\OPENCV2.3.1\OPENCV\BUILD\X86\VC10\LIB\OPENCV_HIGHGUI231.LIB
C:\OPENCV2.3.1\OPENCV\BUILD\X86\VC10\LIB\OPENCV_HIGHGUI231D.LIB
C:\OPENCV2.3.1\OPENCV\BUILD\X86\VC10\LIB\OPENCV_IMGPROC231.LIB
C:\OPENCV2.3.1\OPENCV\BUILD\X86\VC10\LIB\OPENCV_IMGPROC231D.LIB
C:\OPENCV2.3.1\OPENCV\BUILD\X86\VC10\LIB\OPENCV_LEGACY231.LIB
C:\OPENCV2.3.1\OPENCV\BUILD\X86\VC10\LIB\OPENCV_LEGACY231D.LIB
C:\OPENCV2.3.1\OPENCV\BUILD\X86\VC10\LIB\OPENCV_ML231.LIB
C:\OPENCV2.3.1\OPENCV\BUILD\X86\VC10\LIB\OPENCV_ML231D.LIB
C:\OPENCV2.3.1\OPENCV\BUILD\X86\VC10\LIB\OPENCV_OBJDETECT231.LIB
C:\OPENCV2.3.1\OPENCV\BUILD\X86\VC10\LIB\OPENCV_OBJDETECT231D.LIB
C:\OPENCV2.3.1\OPENCV\BUILD\X86\VC10\LIB\OPENCV_TS231.LIB
C:\OPENCV2.3.1\OPENCV\BUILD\X86\VC10\LIB\OPENCV_TS231D.LIB
C:\OPENCV2.3.1\OPENCV\BUILD\X86\VC10\LIB\OPENCV_VIDEO231.LIB
C:\OPENCV2.3.1\OPENCV\BUILD\X86\VC10\LIB\OPENCV_VIDEO231D.LIB
C:\TBB41\LIB\IA32\VC10\TBB.LIB
C:\TBB41\LIB\IA32\VC10\TBBMALLOC.LIB
C:\TBB41\LIB\IA32\VC10\TBBMALLOC_DEBUG.LIB
C:\TBB41\LIB\IA32\VC10\TBBMALLOC_PROXY.LIB
C:\TBB41\LIB\IA32\VC10\TBBMALLOC_PROXY_DEBUG.LIB
C:\TBB41\LIB\IA32\VC10\TBBPROXY.LIB
C:\TBB41\LIB\IA32\VC10\TBBPROXY_DEBUG.LIB
C:\TBB41\LIB\IA32\VC10\TBB_DEBUG.LIB
C:\TBB41\LIB\IA32\VC10\TBB_PREVIEW.LIB
C:\TBB41\LIB\IA32\VC10\TBB_PREVIEW_DEBUG.LIB
C:\USERS\ICUSTOMIZE\DOCUMENTS\VISUAL STUDIO 2010\PROJECTS\TONGUETRACKING - COPY\TONGUETRACKING\RELEASE\APP.RES
C:\USERS\ICUSTOMIZE\DOCUMENTS\VISUAL STUDIO 2010\PROJECTS\TONGUETRACKING - COPY\TONGUETRACKING\RELEASE\ASSEMBLYINFO.OBJ
C:\USERS\ICUSTOMIZE\DOCUMENTS\VISUAL STUDIO 2010\PROJECTS\TONGUETRACKING - COPY\TONGUETRACKING\RELEASE\DETECTION.OBJ
C:\USERS\ICUSTOMIZE\DOCUMENTS\VISUAL STUDIO 2010\PROJECTS\TONGUETRACKING - COPY\TONGUETRACKING\RELEASE\STDAFX.OBJ
C:\USERS\ICUSTOMIZE\DOCUMENTS\VISUAL STUDIO 2010\PROJECTS\TONGUETRACKING - COPY\TONGUETRACKING\RELEASE\TONGUETRACKING.OBJ
C:\USERS\ICUSTOMIZE\DOCUMENTS\VISUAL STUDIO 2010\PROJECTS\TONGUETRACKING - COPY\TONGUETRACKING\RELEASE\UI.OBJ
C:\USERS\ICUSTOMIZE\DOCUMENTS\VISUAL STUDIO 2010\PROJECTS\TONGUETRACKING - COPY\TONGUETRACKING\RELEASE\.NETFRAMEWORK,VERSION=V4.0.ASSEMBLYATTRIBUTES.OBJ
C:\WINDOWS\GLOBALIZATION\SORTING\SORTDEFAULT.NLS
C:\WINDOWS\SYSTEM32\TZRES.DLL
C:\WINDOWS\MICROSOFT.NET\FRAMEWORK\V2.0.50727\MSCORWKS.DLL
C:\WINDOWS\MICROSOFT.NET\FRAMEWORK\V4.0.30319\CLR.DLL
C:\PROGRAM FILES\MICROSOFT VISUAL STUDIO 10.0\VC\BIN\LINK.EXE.CONFIG
C:\PROGRAM FILES\MICROSOFT VISUAL STUDIO 10.0\VC\LIB\MSVCPRT.LIB
C:\PROGRAM FILES\MICROSOFT VISUAL STUDIO 10.0\VC\LIB\MSVCRT.LIB
C:\PROGRAM FILES\MICROSOFT VISUAL STUDIO 10.0\VC\LIB\OLDNAMES.LIB
C:\PROGRAM FILES\MICROSOFT VISUAL STUDIO 10.0\VC\LIB\MSVCMRT.LIB
C:\PROGRAM FILES\MICROSOFT SDKS\WINDOWS\V7.0A\LIB\MSCOREE.LIB
C:\PROGRAM FILES\MICROSOFT VISUAL STUDIO 10.0\VC\BIN\CVTRES.EXE
C:\PROGRAM FILES\MICROSOFT VISUAL STUDIO 10.0\COMMON7\IDE\MSPDBSRV.EXE
C:\PROGRAM FILES\MICROSOFT VISUAL STUDIO 10.0\VC\BIN\1033\LINKUI.DLL
C:\USERS\ICUSTOMIZE\DOCUMENTS\VISUAL STUDIO 2010\PROJECTS\TONGUETRACKING - COPY\TONGUETRACKING\RELEASE\TONGUETRACKING.UI.RESOURCES
C:\WINDOWS\SYSTEM32\RSAENH.DLL
^C:\USERS\ICUSTOMIZE\DOCUMENTS\VISUAL STUDIO 2010\PROJECTS\DATA COLLECTION\TONGUETRACKING\RELEASE\.NETFRAMEWORK,VERSION=V4.0.ASSEMBLYATTRIBUTES.OBJ|C:\USERS\ICUSTOMIZE\DOCUMENTS\VISUAL STUDIO 2010\PROJECTS\DATA COLLECTION\TONGUETRACKING\RELEASE\APP.RES|C:\USERS\ICUSTOMIZE\DOCUMENTS\VISUAL STUDIO 2010\PROJECTS\DATA COLLECTION\TONGUETRACKING\RELEASE\ASSEMBLYINFO.OBJ|C:\USERS\ICUSTOMIZE\DOCUMENTS\VISUAL STUDIO 2010\PROJECTS\DATA COLLECTION\TONGUETRACKING\RELEASE\DETECTION.OBJ|C:\USERS\ICUSTOMIZE\DOCUMENTS\VISUAL STUDIO 2010\PROJECTS\DATA COLLECTION\TONGUETRACKING\RELEASE\STDAFX.OBJ|C:\USERS\ICUSTOMIZE\DOCUMENTS\VISUAL STUDIO 2010\PROJECTS\DATA COLLECTION\TONGUETRACKING\RELEASE\TONGUETRACKING.OBJ|C:\USERS\ICUSTOMIZE\DOCUMENTS\VISUAL STUDIO 2010\PROJECTS\DATA COLLECTION\TONGUETRACKING\RELEASE\UI.OBJ
C:\PROGRAM FILES\MICROSOFT VISUAL STUDIO 10.0\VC\BIN\LINK.EXE
C:\WINDOWS\SYSTEM32\C_1252.NLS
C:\PROGRAM FILES\MICROSOFT SDKS\WINDOWS\V7.0A\LIB\KERNEL32.LIB
C:\PROGRAM FILES\MICROSOFT SDKS\WINDOWS\V7.0A\LIB\USER32.LIB
C:\PROGRAM FILES\MICROSOFT SDKS\WINDOWS\V7.0A\LIB\GDI32.LIB
C:\PROGRAM FILES\MICROSOFT SDKS\WINDOWS\V7.0A\LIB\WINSPOOL.LIB
C:\PROGRAM FILES\MICROSOFT SDKS\WINDOWS\V7.0A\LIB\COMDLG32.LIB
C:\PROGRAM FILES\MICROSOFT SDKS\WINDOWS\V7.0A\LIB\ADVAPI32.LIB
C:\PROGRAM FILES\MICROSOFT SDKS\WINDOWS\V7.0A\LIB\SHELL32.LIB
C:\PROGRAM FILES\MICROSOFT SDKS\WINDOWS\V7.0A\LIB\OLE32.LIB
C:\PROGRAM FILES\MICROSOFT SDKS\WINDOWS\V7.0A\LIB\OLEAUT32.LIB
C:\PROGRAM FILES\MICROSOFT SDKS\WINDOWS\V7.0A\LIB\UUID.LIB
C:\PROGRAM FILES\MICROSOFT SDKS\WINDOWS\V7.0A\LIB\ODBC32.LIB
C:\PROGRAM FILES\MICROSOFT SDKS\WINDOWS\V7.0A\LIB\ODBCCP32.LIB
C:\OPENCV2.3.1\OPENCV\BUILD\X86\VC10\LIB\OPENCV_CALIB3D231.LIB
C:\OPENCV2.3.1\OPENCV\BUILD\X86\VC10\LIB\OPENCV_CALIB3D231D.LIB
C:\OPENCV2.3.1\OPENCV\BUILD\X86\VC10\LIB\OPENCV_CONTRIB231.LIB
C:\OPENCV2.3.1\OPENCV\BUILD\X86\VC10\LIB\OPENCV_CONTRIB231D.LIB
C:\OPENCV2.3.1\OPENCV\BUILD\X86\VC10\LIB\OPENCV_CORE231.LIB
C:\OPENCV2.3.1\OPENCV\BUILD\X86\VC10\LIB\OPENCV_CORE231D.LIB
C:\OPENCV2.3.1\OPENCV\BUILD\X86\VC10\LIB\OPENCV_FEATURES2D231.LIB
C:\OPENCV2.3.1\OPENCV\BUILD\X86\VC10\LIB\OPENCV_FEATURES2D231D.LIB
C:\OPENCV2.3.1\OPENCV\BUILD\X86\VC10\LIB\OPENCV_FLANN231.LIB
C:\OPENCV2.3.1\OPENCV\BUILD\X86\VC10\LIB\OPENCV_FLANN231D.LIB
C:\OPENCV2.3.1\OPENCV\BUILD\X86\VC10\LIB\OPENCV_GPU231.LIB
C:\OPENCV2.3.1\OPENCV\BUILD\X86\VC10\LIB\OPENCV_GPU231D.LIB
C:\OPENCV2.3.1\OPENCV\BUILD\X86\VC10\LIB\OPENCV_HAARTRAINING_ENGINE.LIB
C:\OPENCV2.3.1\OPENCV\BUILD\X86\VC10\LIB\OPENCV_HAARTRAINING_ENGINED.LIB
C:\OPENCV2.3.1\OPENCV\BUILD\X86\VC10\LIB\OPENCV_HIGHGUI231.LIB
C:\OPENCV2.3.1\OPENCV\BUILD\X86\VC10\LIB\OPENCV_HIGHGUI231D.LIB
C:\OPENCV2.3.1\OPENCV\BUILD\X86\VC10\LIB\OPENCV_IMGPROC231.LIB
C:\OPENCV2.3.1\OPENCV\BUILD\X86\VC10\LIB\OPENCV_IMGPROC231D.LIB
C:\OPENCV2.3.1\OPENCV\BUILD\X86\VC10\LIB\OPENCV_LEGACY231.LIB
C:\OPENCV2.3.1\OPENCV\BUILD\X86\VC10\LIB\OPENCV_LEGACY231D.LIB
C:\OPENCV2.3.1\OPENCV\BUILD\X86\VC10\LIB\OPENCV_ML231.LIB
C:\OPENCV2.3.1\OPENCV\BUILD\X86\VC10\LIB\OPENCV_ML231D.LIB
C:\OPENCV2.3.1\OPENCV\BUILD\X86\VC10\LIB\OPENCV_OBJDETECT231.LIB
C:\OPENCV2.3.1\OPENCV\BUILD\X86\VC10\LIB\OPENCV_OBJDETECT231D.LIB
C:\OPENCV2.3.1\OPENCV\BUILD\X86\VC10\LIB\OPENCV_TS231.LIB
C:\OPENCV2.3.1\OPENCV\BUILD\X86\VC10\LIB\OPENCV_TS231D.LIB
C:\OPENCV2.3.1\OPENCV\BUILD\X86\VC10\LIB\OPENCV_VIDEO231.LIB
C:\OPENCV2.3.1\OPENCV\BUILD\X86\VC10\LIB\OPENCV_VIDEO231D.LIB
C:\TBB41\LIB\IA32\VC10\TBB.LIB
C:\TBB41\LIB\IA32\VC10\TBBMALLOC.LIB
C:\TBB41\LIB\IA32\VC10\TBBMALLOC_DEBUG.LIB
C:\TBB41\LIB\IA32\VC10\TBBMALLOC_PROXY.LIB
C:\TBB41\LIB\IA32\VC10\TBBMALLOC_PROXY_DEBUG.LIB
C:\TBB41\LIB\IA32\VC10\TBBPROXY.LIB
C:\TBB41\LIB\IA32\VC10\TBBPROXY_DEBUG.LIB
C:\TBB41\LIB\IA32\VC10\TBB_DEBUG.LIB
C:\TBB41\LIB\IA32\VC10\TBB_PREVIEW.LIB
C:\TBB41\LIB\IA32\VC10\TBB_PREVIEW_DEBUG.LIB
C:\USERS\ICUSTOMIZE\DOCUMENTS\VISUAL STUDIO 2010\PROJECTS\DATA COLLECTION\TONGUETRACKING\RELEASE\APP.RES
C:\USERS\ICUSTOMIZE\DOCUMENTS\VISUAL STUDIO 2010\PROJECTS\DATA COLLECTION\TONGUETRACKING\RELEASE\ASSEMBLYINFO.OBJ
C:\USERS\ICUSTOMIZE\DOCUMENTS\VISUAL STUDIO 2010\PROJECTS\DATA COLLECTION\TONGUETRACKING\RELEASE\DETECTION.OBJ
C:\USERS\ICUSTOMIZE\DOCUMENTS\VISUAL STUDIO 2010\PROJECTS\DATA COLLECTION\TONGUETRACKING\RELEASE\STDAFX.OBJ
C:\USERS\ICUSTOMIZE\DOCUMENTS\VISUAL STUDIO 2010\PROJECTS\DATA COLLECTION\TONGUETRACKING\RELEASE\TONGUETRACKING.OBJ
C:\USERS\ICUSTOMIZE\DOCUMENTS\VISUAL STUDIO 2010\PROJECTS\DATA COLLECTION\TONGUETRACKING\RELEASE\UI.OBJ
C:\USERS\ICUSTOMIZE\DOCUMENTS\VISUAL STUDIO 2010\PROJECTS\DATA COLLECTION\TONGUETRACKING\RELEASE\.NETFRAMEWORK,VERSION=V4.0.ASSEMBLYATTRIBUTES.OBJ
C:\WINDOWS\GLOBALIZATION\SORTING\SORTDEFAULT.NLS
C:\WINDOWS\SYSTEM32\TZRES.DLL
C:\WINDOWS\MICROSOFT.NET\FRAMEWORK\V2.0.50727\MSCORWKS.DLL
C:\WINDOWS\MICROSOFT.NET\FRAMEWORK\V4.0.30319\CLR.DLL
C:\PROGRAM FILES\MICROSOFT VISUAL STUDIO 10.0\VC\BIN\LINK.EXE.CONFIG
C:\PROGRAM FILES\MICROSOFT VISUAL STUDIO 10.0\VC\LIB\MSVCPRT.LIB
C:\PROGRAM FILES\MICROSOFT VISUAL STUDIO 10.0\VC\LIB\MSVCRT.LIB
C:\PROGRAM FILES\MICROSOFT VISUAL STUDIO 10.0\VC\LIB\OLDNAMES.LIB
C:\PROGRAM FILES\MICROSOFT VISUAL STUDIO 10.0\VC\LIB\MSVCMRT.LIB
C:\PROGRAM FILES\MICROSOFT SDKS\WINDOWS\V7.0A\LIB\MSCOREE.LIB
C:\PROGRAM FILES\MICROSOFT VISUAL STUDIO 10.0\VC\BIN\CVTRES.EXE
C:\PROGRAM FILES\MICROSOFT VISUAL STUDIO 10.0\VC\BIN\1033\LINKUI.DLL
C:\USERS\ICUSTOMIZE\DOCUMENTS\VISUAL STUDIO 2010\PROJECTS\DATA COLLECTION\TONGUETRACKING\RELEASE\TONGUETRACKING.UI.RESOURCES
C:\WINDOWS\SYSTEM32\RSAENH.DLL
^F:\INTERN\BACKUP\DATA COLLECTION\TONGUETRACKING\RELEASE\.NETFRAMEWORK,VERSION=V4.0.ASSEMBLYATTRIBUTES.OBJ|F:\INTERN\BACKUP\DATA COLLECTION\TONGUETRACKING\RELEASE\APP.RES|F:\INTERN\BACKUP\DATA COLLECTION\TONGUETRACKING\RELEASE\ASSEMBLYINFO.OBJ|F:\INTERN\BACKUP\DATA COLLECTION\TONGUETRACKING\RELEASE\DETECTION.OBJ|F:\INTERN\BACKUP\DATA COLLECTION\TONGUETRACKING\RELEASE\STDAFX.OBJ|F:\INTERN\BACKUP\DATA COLLECTION\TONGUETRACKING\RELEASE\TONGUETRACKING.OBJ|F:\INTERN\BACKUP\DATA COLLECTION\TONGUETRACKING\RELEASE\UI.OBJ
C:\PROGRAM FILES (X86)\MICROSOFT SDKS\WINDOWS\V7.0A\LIB\KERNEL32.LIB
C:\PROGRAM FILES (X86)\MICROSOFT SDKS\WINDOWS\V7.0A\LIB\USER32.LIB
C:\PROGRAM FILES (X86)\MICROSOFT SDKS\WINDOWS\V7.0A\LIB\GDI32.LIB
C:\PROGRAM FILES (X86)\MICROSOFT SDKS\WINDOWS\V7.0A\LIB\WINSPOOL.LIB
C:\PROGRAM FILES (X86)\MICROSOFT SDKS\WINDOWS\V7.0A\LIB\COMDLG32.LIB
C:\PROGRAM FILES (X86)\MICROSOFT SDKS\WINDOWS\V7.0A\LIB\ADVAPI32.LIB
C:\PROGRAM FILES (X86)\MICROSOFT SDKS\WINDOWS\V7.0A\LIB\SHELL32.LIB
C:\PROGRAM FILES (X86)\MICROSOFT SDKS\WINDOWS\V7.0A\LIB\OLE32.LIB
C:\PROGRAM FILES (X86)\MICROSOFT SDKS\WINDOWS\V7.0A\LIB\OLEAUT32.LIB
C:\PROGRAM FILES (X86)\MICROSOFT SDKS\WINDOWS\V7.0A\LIB\UUID.LIB
C:\PROGRAM FILES (X86)\MICROSOFT SDKS\WINDOWS\V7.0A\LIB\ODBC32.LIB
C:\PROGRAM FILES (X86)\MICROSOFT SDKS\WINDOWS\V7.0A\LIB\ODBCCP32.LIB
C:\OPENCV2.3.1\OPENCV\BUILD\X86\VC10\LIB\OPENCV_CALIB3D231.LIB
C:\OPENCV2.3.1\OPENCV\BUILD\X86\VC10\LIB\OPENCV_CALIB3D231D.LIB
C:\OPENCV2.3.1\OPENCV\BUILD\X86\VC10\LIB\OPENCV_CONTRIB231.LIB
C:\OPENCV2.3.1\OPENCV\BUILD\X86\VC10\LIB\OPENCV_CONTRIB231D.LIB
C:\OPENCV2.3.1\OPENCV\BUILD\X86\VC10\LIB\OPENCV_CORE231.LIB
C:\OPENCV2.3.1\OPENCV\BUILD\X86\VC10\LIB\OPENCV_CORE231D.LIB
C:\OPENCV2.3.1\OPENCV\BUILD\X86\VC10\LIB\OPENCV_FEATURES2D231.LIB
C:\OPENCV2.3.1\OPENCV\BUILD\X86\VC10\LIB\OPENCV_FEATURES2D231D.LIB
C:\OPENCV2.3.1\OPENCV\BUILD\X86\VC10\LIB\OPENCV_FLANN231.LIB
C:\OPENCV2.3.1\OPENCV\BUILD\X86\VC10\LIB\OPENCV_FLANN231D.LIB
C:\OPENCV2.3.1\OPENCV\BUILD\X86\VC10\LIB\OPENCV_GPU231.LIB
C:\OPENCV2.3.1\OPENCV\BUILD\X86\VC10\LIB\OPENCV_GPU231D.LIB
C:\OPENCV2.3.1\OPENCV\BUILD\X86\VC10\LIB\OPENCV_HAARTRAINING_ENGINE.LIB
C:\OPENCV2.3.1\OPENCV\BUILD\X86\VC10\LIB\OPENCV_HAARTRAINING_ENGINED.LIB
C:\OPENCV2.3.1\OPENCV\BUILD\X86\VC10\LIB\OPENCV_HIGHGUI231.LIB
C:\OPENCV2.3.1\OPENCV\BUILD\X86\VC10\LIB\OPENCV_HIGHGUI231D.LIB
C:\OPENCV2.3.1\OPENCV\BUILD\X86\VC10\LIB\OPENCV_IMGPROC231.LIB
C:\OPENCV2.3.1\OPENCV\BUILD\X86\VC10\LIB\OPENCV_IMGPROC231D.LIB
C:\OPENCV2.3.1\OPENCV\BUILD\X86\VC10\LIB\OPENCV_LEGACY231.LIB
C:\OPENCV2.3.1\OPENCV\BUILD\X86\VC10\LIB\OPENCV_LEGACY231D.LIB
C:\OPENCV2.3.1\OPENCV\BUILD\X86\VC10\LIB\OPENCV_ML231.LIB
C:\OPENCV2.3.1\OPENCV\BUILD\X86\VC10\LIB\OPENCV_ML231D.LIB
C:\OPENCV2.3.1\OPENCV\BUILD\X86\VC10\LIB\OPENCV_OBJDETECT231.LIB
C:\OPENCV2.3.1\OPENCV\BUILD\X86\VC10\LIB\OPENCV_OBJDETECT231D.LIB
C:\OPENCV2.3.1\OPENCV\BUILD\X86\VC10\LIB\OPENCV_TS231.LIB
C:\OPENCV2.3.1\OPENCV\BUILD\X86\VC10\LIB\OPENCV_TS231D.LIB
C:\OPENCV2.3.1\OPENCV\BUILD\X86\VC10\LIB\OPENCV_VIDEO231.LIB
C:\OPENCV2.3.1\OPENCV\BUILD\X86\VC10\LIB\OPENCV_VIDEO231D.LIB
C:\TBB41\LIB\IA32\VC10\TBB.LIB
C:\TBB41\LIB\IA32\VC10\TBBMALLOC.LIB
C:\TBB41\LIB\IA32\VC10\TBBMALLOC_DEBUG.LIB
C:\TBB41\LIB\IA32\VC10\TBBMALLOC_PROXY.LIB
C:\TBB41\LIB\IA32\VC10\TBBMALLOC_PROXY_DEBUG.LIB
C:\TBB41\LIB\IA32\VC10\TBBPROXY.LIB
C:\TBB41\LIB\IA32\VC10\TBBPROXY_DEBUG.LIB
C:\TBB41\LIB\IA32\VC10\TBB_DEBUG.LIB
C:\TBB41\LIB\IA32\VC10\TBB_PREVIEW.LIB
C:\TBB41\LIB\IA32\VC10\TBB_PREVIEW_DEBUG.LIB
F:\INTERN\BACKUP\DATA COLLECTION\TONGUETRACKING\RELEASE\APP.RES
F:\INTERN\BACKUP\DATA COLLECTION\TONGUETRACKING\RELEASE\ASSEMBLYINFO.OBJ
F:\INTERN\BACKUP\DATA COLLECTION\TONGUETRACKING\RELEASE\DETECTION.OBJ
F:\INTERN\BACKUP\DATA COLLECTION\TONGUETRACKING\RELEASE\STDAFX.OBJ
F:\INTERN\BACKUP\DATA COLLECTION\TONGUETRACKING\RELEASE\TONGUETRACKING.OBJ
F:\INTERN\BACKUP\DATA COLLECTION\TONGUETRACKING\RELEASE\UI.OBJ
F:\INTERN\BACKUP\DATA COLLECTION\TONGUETRACKING\RELEASE\.NETFRAMEWORK,VERSION=V4.0.ASSEMBLYATTRIBUTES.OBJ
C:\WINDOWS\GLOBALIZATION\SORTING\SORTDEFAULT.NLS
C:\WINDOWS\MICROSOFT.NET\FRAMEWORK\V2.0.50727\MSCORWKS.DLL
C:\WINDOWS\MICROSOFT.NET\FRAMEWORK\V4.0.30319\CLR.DLL
C:\PROGRAM FILES (X86)\MICROSOFT VISUAL STUDIO 10.0\VC\BIN\LINK.EXE.CONFIG
C:\PROGRAM FILES (X86)\MICROSOFT VISUAL STUDIO 10.0\VC\LIB\MSVCPRT.LIB
C:\PROGRAM FILES (X86)\MICROSOFT VISUAL STUDIO 10.0\VC\LIB\MSVCRT.LIB
C:\PROGRAM FILES (X86)\MICROSOFT VISUAL STUDIO 10.0\VC\LIB\OLDNAMES.LIB
C:\PROGRAM FILES (X86)\MICROSOFT VISUAL STUDIO 10.0\VC\LIB\MSVCMRT.LIB
C:\PROGRAM FILES (X86)\MICROSOFT SDKS\WINDOWS\V7.0A\LIB\MSCOREE.LIB
C:\PROGRAM FILES (X86)\MICROSOFT VISUAL STUDIO 10.0\VC\BIN\CVTRES.EXE
C:\WINDOWS\SYSTEM32\TZRES.DLL
C:\PROGRAM FILES (X86)\MICROSOFT VISUAL STUDIO 10.0\VC\BIN\1033\LINKUI.DLL
F:\INTERN\BACKUP\DATA COLLECTION\TONGUETRACKING\RELEASE\TONGUETRACKING.UI.RESOURCES
C:\WINDOWS\SYSTEM32\RSAENH.DLL
